Fair is foul, and foul is fair: a tidytext sentiment analysis of Shakespeare’s tragedies | Peer Christensen
…
Loading our data

Initially when I started working on Shakespeare’s plays, I downloaded the texts as .txt files and cleaned them in several steps. At the bottom of this page, I provide some code showing how I did it.

A more efficient way to gather public domain literary texts, such as Shakespeare’s plays, is to use David Robinson’s gutenbergr package. Let’s first see what’s available by Shakespeare.

shakespeare <- gutenberg_works(author == "Shakespeare, William") 

shakespeare

## # A tibble: 79 x 8
##    gutenberg_id title author gutenberg_autho… language gutenberg_books…
##           <int> <chr> <chr>             <int> <chr>    <chr>           
##  1         1041 Shak… Shake…               65 en       <NA>            
##  2         1045 Venu… Shake…               65 en       <NA>            
##  3         1500 King… Shake…               65 en       <NA>            
##  4         1501 Hist… Shake…               65 en       <NA>            
##  5         1502 The … Shake…               65 en       <NA>            
##  6         1503 The … Shake…               65 en       <NA>            
##  7         1504 The … Shake…               65 en       <NA>            
##  8         1505 The … Shake…               65 en       <NA>            
##  9         1507 The … Shake…               65 en       <NA>            
## 10         1508 The … Shake…               65 en       <NA>            
## # ... with 69 more rows, and 2 more variables: rights <chr>,
## #   has_text <lgl>
…
It looks like we have the right texts. Let’s download the texts, store them in a tibble and look at the data.

plays = gutenberg_download(IDs,meta_fields = "title")

plays

## # A tibble: 46,795 x 3
##    gutenberg_id text                       title           
##           <int> <chr>                      <chr>           
##  1         1513 ROMEO AND JULIET           Romeo and Juliet
##  2         1513 ""                         Romeo and Juliet
##  3         1513 by William Shakespeare     Romeo and Juliet
##  4         1513 ""                         Romeo and Juliet
##  5         1513 ""                         Romeo and Juliet
##  6         1513 ""                         Romeo and Juliet
##  7         1513 ""                         Romeo and Juliet
##  8         1513 PERSONS REPRESENTED        Romeo and Juliet
##  9         1513 ""                         Romeo and Juliet
## 10         1513 Escalus, Prince of Verona. Romeo and Juliet
## # ... with 46,785 more rows

Creating a data frame of sentiment words

We see that the text variable contains one line of text for each row. Given this format, we can create a new data frame with a row for each word token found in the Bing lexicon of sentiment words. By using this lexicon, sentiment words are simpky assigned a value of positive or negative. Have a look at the other options with ?get_sentiments. We will try using the nrc lexicon later on.

sentiments = plays %>% 
  group_by(title) %>%
  mutate(line = row_number()) %>%      # we will use line numbers later
  unnest_tokens(word, text) %>%        #tokenize words
  #anti_join(stop_words) %>%           # in case we would like to remove stop words
  inner_join(get_sentiments("bing"))   # keep only words found in the Bing lexicon

sentiments

## # A tibble: 16,562 x 5
## # Groups:   title [?]
##    gutenberg_id title             line word       sentiment
##           <int> <chr>            <int> <chr>      <chr>    
##  1         1513 Romeo and Juliet    50 dignity    positive 
##  2         1513 Romeo and Juliet    51 fair       positive 
##  3         1513 Romeo and Juliet    52 grudge     negative 
##  4         1513 Romeo and Juliet    52 break      negative 
##  5         1513 Romeo and Juliet    53 unclean    negative 
##  6         1513 Romeo and Juliet    54 fatal      negative 
##  7         1513 Romeo and Juliet    56 overthrows negative 
##  8         1513 Romeo and Juliet    57 death      negative 
##  9         1513 Romeo and Juliet    57 strife     negative 
## 10         1513 Romeo and Juliet    58 fearful    negative 
## # ... with 16,552 more rows
…
