…
For whatever reason, the hashtags co-occurring with ‘men’ revolve around fashion, style and grooming. By contrast, the hashtags co-occurring with ‘women’ reflect career choices (STEM, tech, business). More generally, the construction “women in X” appears to be highly productive and frequent.

His name, her father

Next, we’ll perform frequency analyses of words following the possessive pronouns starting with ‘his’.

his <- read_csv("hisTweets.csv") %>%
  select(text)                   %>% 
  unnest_tokens(bigram, text, token = "ngrams", n = 2) %>%
  separate(bigram, c("word1", "word2"), sep = " ")     %>%
  filter(word1 == "his")

his

## # A tibble: 123,762 x 2
##    word1 word2   
##    <chr> <chr>   
##  1 his   hand    
##  2 his   anger   
##  3 his   daughter
##  4 his   gift    
##  5 his   abusive 
##  6 his   abusive 
##  7 his   back    
##  8 his   failure 
##  9 his   views   
## 10 his   2nd     
## # ... with 123,752 more rows
…
include <- udpipe(x = his$word2,
                  object = udmodel)

include <- include      %>%
  select(token,upos)    %>%
  filter(upos =="NOUN") %>%
  select(token) 

his <- his %>%
  filter(word2 %in% include$token)

his

## # A tibble: 86,966 x 2
##    word1 word2        
##    <chr> <chr>        
##  1 his   hand         
##  2 his   anger        
##  3 his   daughter     
##  4 his   gift         
##  5 his   failure      
##  6 his   views        
##  7 his   substitutions
##  8 his   basement     
##  9 his   fan          
## 10 his   supporters   
## # ... with 86,956 more rows
…
