Topic Modelling of Trustpilot Reviews with R and tidytext | Peer Christensen
…
3

266

4

343

We can also get the per-topic per-word probabilities, or “beta”.

topics_pos <- tidy(reviewLDA_pos, matrix = "beta")
topics_pos

## # A tibble: 46,844 x 3
##    topic term            beta
##    <int> <chr>          <dbl>
##  1     1 telefon    0.00376  
##  2     2 telefon    0.00358  
##  3     3 telefon    0.0165   
##  4     4 telefon    0.00319  
##  5     1 abonnement 0.00326  
##  6     2 abonnement 0.00871  
##  7     3 abonnement 0.00193  
##  8     4 abonnement 0.0130   
##  9     1 navn       0.000964 
## 10     2 navn       0.0000227
## # ... with 46,834 more rows
…
